com_dump/test2.vcd
$date
	Wed Nov 13 00:00:00 2024
$end
$version
	Icarus Verilog
$end
$timescale
	1ns
$end
$scope module truc $end
$var wire 1 ! trame0 $end
$var wire 1 " trame1 $end
$var wire 1 # trame2 $end
$var wire 1 $ trame3 $end
$var wire 1 % trame4 $end
$var wire 1 & trame5 $end
$var wire 1 ' trame6 $end
$var wire 1 ( trame7 $end
$var wire 1 ) trame8 $end
$var wire 1 * trame9 $end
$var wire 1 + trame10 $end
$upscope $end
$enddefinitions $end
#0
$dumpvars
b0 !
b0 "
b0 #
b0 $
b0 %
b0 &
b0 '
b0 (
b0 )
b0 *
b0 +
$end
#8972000.0
b0 &
#9024000.0
b0 %
#9028000.0
b0 #
#9036000.0
b0 '
#9048000.0
b0 $
#9048000.0
b0 (
#9056000.0
b0 )
#9056000.0
b0 *
#9068000.0
b0 !
#9068000.0
b0 "
#9080000.0
b0 +
#9732000.0
b1 &
#9784000.0
b1 #
#9784000.0
b1 %
#9792000.0
b1 '
#9804000.0
b1 $
#9804000.0
b1 (
#9812000.0
b1 )
#9812000.0
b1 *
#9824000.0
b1 !
#9824000.0
b1 "
#9840000.0
b1 +
#10000000.0
b0 !
#10000000.0
b0 "
#10000000.0
b0 #
#10000000.0
b0 $
#10000000.0
b0 %
#10000000.0
b0 &
#10000000.0
b0 '
#10000000.0
b0 (
#10000000.0
b0 )
#10000000.0
b0 *
#10000000.0
b0 +
#10048000.0
b1 $
#10048000.0
b1 %
#10048000.0
b1 '
#10048000.0
b1 (
#10048000.0
b1 +
#10052000.0
b1 !
#10052000.0
b1 "
#10052000.0
b1 #
#10052000.0
b1 &
#10052000.0
b1 )
#10052000.0
b1 *
#10104000.0
b0 !
#10104000.0
b0 "
#10104000.0
b0 #
#10104000.0
b0 $
#10104000.0
b0 %
#10104000.0
b0 &
#10104000.0
b0 '
#10104000.0
b0 (
#10104000.0
b0 )
#10104000.0
b0 *
#10104000.0
b0 +
#10152000.0
b1 $
#10152000.0
b1 %
#10152000.0
b1 '
#10152000.0
b1 (
#10152000.0
b1 +
#10156000.0
b1 !
#10156000.0
b1 "
#10156000.0
b1 #
#10156000.0
b1 &
#10156000.0
b1 )
#10156000.0
b1 *
#10208000.0
b0 #
#10208000.0
b0 $
#10208000.0
b0 %
#10208000.0
b0 &
#10208000.0
b0 '
#10208000.0
b0 (
#10208000.0
b0 )
#10208000.0
b0 *
#10208000.0
b0 +
#10212000.0
b0 !
#10212000.0
b0 "
#10256000.0
b1 %
#10256000.0
b1 '
#10260000.0
b1 !
#10260000.0
b1 "
#10260000.0
b1 #
#10260000.0
b1 $
#10260000.0
b1 &
#10260000.0
b1 (
#10260000.0
b1 )
#10260000.0
b1 *
#10260000.0
b1 +
#10312000.0
b0 #
#10312000.0
b0 $
#10312000.0
b0 %
#10312000.0
b0 &
#10312000.0
b0 '
#10312000.0
b0 (
#10312000.0
b0 )
#10312000.0
b0 *
#10312000.0
b0 +
#10316000.0
b0 !
#10316000.0
b0 "
#10360000.0
b1 %
#10360000.0
b1 '
#10364000.0
b1 !
#10364000.0
b1 "
#10364000.0
b1 #
#10364000.0
b1 $
#10364000.0
b1 &
#10364000.0
b1 (
#10364000.0
b1 )
#10364000.0
b1 *
#10364000.0
b1 +
#10416000.0
b0 #
#10416000.0
b0 $
#10416000.0
b0 %
#10416000.0
b0 '
#10416000.0
b0 (
#10416000.0
b0 )
#10416000.0
b0 *
#10416000.0
b0 +
#10420000.0
b0 !
#10420000.0
b0 "
#10420000.0
b0 &
#10468000.0
b1 !
#10468000.0
b1 "
#10468000.0
b1 #
#10468000.0
b1 $
#10468000.0
b1 %
#10468000.0
b1 &
#10468000.0
b1 '
#10468000.0
b1 (
#10468000.0
b1 )
#10468000.0
b1 *
#10468000.0
b1 +
#10520000.0
b0 #
#10520000.0
b0 $
#10520000.0
b0 %
#10520000.0
b0 '
#10520000.0
b0 (
#10520000.0
b0 )
#10520000.0
b0 *
#10520000.0
b0 +
#10524000.0
b0 !
#10524000.0
b0 "
#10524000.0
b0 &
#10572000.0
b1 !
#10572000.0
b1 "
#10572000.0
b1 %
#10572000.0
b1 '
#10572000.0
b1 (
#10572000.0
b1 *
#10624000.0
b0 %
#10624000.0
b0 '
#10624000.0
b0 *
#10624000.0
b1 +
#10676000.0
b1 #
#10676000.0
b1 $
#10676000.0
b1 %
#10676000.0
b0 +
#10680000.0
b0 !
#10680000.0
b0 "
#10728000.0
b1 !
#10728000.0
b1 "
#10780000.0
b0 #
#10784000.0
b0 !
#10784000.0
b0 "
#10832000.0
b1 #
#10832000.0
b0 (
#10832000.0
b1 )
#10832000.0
b1 *
#10832000.0
b1 +
#10836000.0
b1 !
#10836000.0
b1 "
#10884000.0
b0 $
#10884000.0
b1 '
#10884000.0
b0 )
#10888000.0
b0 !
#10888000.0
b0 "
#10936000.0
b0 %
#10936000.0
b0 *
#10940000.0
b1 &
#10988000.0
b1 $
#10988000.0
b1 %
#10988000.0
b1 (
#10988000.0
b1 )
#10988000.0
b1 *
#10992000.0
b1 !
#10992000.0
b1 "
#11368000.0
b0 +
#11372000.0
b0 &
#11376000.0
b0 *
#11380000.0
b0 (
#11384000.0
b0 '
#11384000.0
b0 )
#11404000.0
b0 $
#11424000.0
b1 &
#11452000.0
b1 $
#11476000.0
b0 &
#11488000.0
b1 '
#11540000.0
b0 '
#11592000.0
b1 '
#11644000.0
b0 '
#11836000.0
b1 +
#11840000.0
b1 &
#11844000.0
b1 *
#11848000.0
b1 (
#11852000.0
b1 '
#11852000.0
b1 )
#11888000.0
b0 +
#11892000.0
b0 &
#11896000.0
b0 *
#11904000.0
b0 '
#11904000.0
b0 (
#11908000.0
b0 )
#11924000.0
b0 $
#12356000.0
b1 +
#12360000.0
b1 &
#12364000.0
b1 *
#12372000.0
b1 '
#12372000.0
b1 (
#12376000.0
b1 )
#12392000.0
b1 $
#12412000.0
b0 &
#12412000.0
b0 +
#12416000.0
b0 *
#12424000.0
b0 (
#12428000.0
b0 '
#12428000.0
b0 )
#12444000.0
b0 $
#12476000.0
b1 '
#12516000.0
b1 &
#12532000.0
b0 '
#12580000.0
b1 '
#12636000.0
b0 '
#12688000.0
b1 '
#12884000.0
b1 *
#12892000.0
b1 (
#12896000.0
b1 )
#12916000.0
b1 $
#12940000.0
b0 *
#12944000.0
b0 (
#12948000.0
b0 )
#12968000.0
b0 $
#13408000.0
b1 *
#13412000.0
b1 (
#13416000.0
b1 )
#13436000.0
b1 $
#13460000.0
b0 *
#13464000.0
b0 (
#13472000.0
b0 )
#13488000.0
b0 $
#13928000.0
b1 *
#13936000.0
b1 (
#13940000.0
b1 )
#13956000.0
b1 $
#13980000.0
b0 *
#13988000.0
b0 (
#13992000.0
b0 )
#14008000.0
b0 $
#14448000.0
b1 *
#14456000.0
b1 (
#14460000.0
b1 )
#14480000.0
b1 $
#14500000.0
b0 *
#14508000.0
b0 (
#14516000.0
b0 )
#14532000.0
b0 $
#14552000.0
b1 *
#14560000.0
b1 (
#14564000.0
b1 )
#15000000.0
b1 $
#15052000.0
b0 $
#15520000.0
b1 $
#15576000.0
b0 $
#15852000.0
b0 #
#15868000.0
b1 #
#15876000.0
b0 #
#16044000.0
b1 $
#29680000.0
b0 !
#30436000.0
b1 !
#30652000.0
b0 !
#30704000.0
b1 !
#30756000.0
b0 !
#30808000.0
b1 !
#30860000.0
b0 !
#30912000.0
b1 !
#30964000.0
b0 !
#31016000.0
b1 !
#31068000.0
b0 !
#31120000.0
b1 !
#31172000.0
b0 !
#31328000.0
b1 !
#31432000.0
b0 !
#31484000.0
b1 !
#36504000.0
b0 !
#36520000.0
b1 !
#36528000.0
b0 !
#50944000.0
b1 !
#51700000.0
b0 !
#51896000.0
b1 !
#51944000.0
b0 !
#52000000.0
b1 !
#52048000.0
b0 !
#52104000.0
b1 !
#52156000.0
b0 !
#52208000.0
b1 !
#52260000.0
b0 !
#52312000.0
b1 !
#52364000.0
b0 !
#52416000.0
b1 !
#52572000.0
b0 !
#52780000.0
b1 !
#52884000.0
b0 !
#53300000.0
b1 !
#53348000.0
b0 !
#53820000.0
b1 !
#54288000.0
b0 !
#54340000.0
b1 !
#54812000.0
b0 !
#54864000.0
b1 !
#55332000.0
b0 !
#55384000.0
b1 !
#55852000.0
b0 !
#55904000.0
b1 !
#56376000.0
b0 !
#56428000.0
b1 !
#56896000.0
b0 !
#56948000.0
b1 !
#57416000.0
b0 !
#57472000.0
b1 !
#57940000.0
b0 !
#72772000.0
b1 !
#73532000.0
b0 !
#73748000.0
b1 !
#73796000.0
b0 !
#73852000.0
b1 !
#73900000.0
b0 !
#73956000.0
b1 !
#74004000.0
b0 !
#74060000.0
b1 !
#74108000.0
b0 !
#74164000.0
b1 !
#74216000.0
b0 !
#74268000.0
b1 !
#74320000.0
b0 !
#74372000.0
b1 !
#74424000.0
b0 !
#74684000.0
b1 !
#74736000.0
b0 !
#93004000.0
b1 !
#93764000.0
b0 !
#94032000.0
b1 !
#94084000.0
b0 !
#94136000.0
b1 !
#94188000.0
b0 !
#94240000.0
b1 !
#94292000.0
b0 !
#94344000.0
b1 !
#94396000.0
b0 !
#94452000.0
b1 !
#94500000.0
b0 !
#94556000.0
b1 !
#94972000.0
b0 !
#95404000.0
b1 !
#95456000.0
b0 !
#95508000.0
b1 !
#95872000.0
b0 !
#95924000.0
b1 !
#96392000.0
b0 !
#96444000.0
b1 !
#96548000.0
b0 !
#114884000.0
b1 !
#115640000.0
b0 !
#115848000.0
b1 !
#115896000.0
b0 !
#115952000.0
b1 !
#116000000.0
b0 !
#116056000.0
b1 !
#116104000.0
b0 !
#116160000.0
b1 !
#116208000.0
b0 !
#116264000.0
b1 !
#116316000.0
b0 !
#116368000.0
b1 !
#116420000.0
b0 !
#116472000.0
b1 !
#116732000.0
b0 !
#117232000.0
b1 !
#117336000.0
b0 !
#117388000.0
b1 !
#117440000.0
b0 !
#117492000.0
b1 !
#117700000.0
b0 !
#117752000.0
b1 !
#118220000.0
b0 !
#118276000.0
b1 !
#118324000.0
b0 !
#118380000.0
b1 !
#118428000.0
b0 !
#118484000.0
b1 !
#118536000.0
b0 !
#135544000.0
b1 !
#136300000.0
b0 !
#136496000.0
b1 !
#136544000.0
b0 !
#136600000.0
b1 !
#136648000.0
b0 !
#136704000.0
b1 !
#136756000.0
b0 !
#136808000.0
b1 !
#136860000.0
b0 !
#136912000.0
b1 !
#136964000.0
b0 !
#137016000.0
b1 !
#137068000.0
b0 !
#137328000.0
b1 !
#137484000.0
b0 !
#137876000.0
b1 !
#138344000.0
b0 !
#138400000.0
b1 !
#138868000.0
b0 !
#138920000.0
b1 !
#139388000.0
b0 !
#139440000.0
b1 !
#139908000.0
b0 !
#139960000.0
b1 !
#140432000.0
b0 !
#140484000.0
b1 !
#140952000.0
b0 !
#141004000.0
b1 !
#141056000.0
b0 !
#156992000.0
b1 !
#157748000.0
b0 !
#157936000.0
b1 !
#157988000.0
b0 !
#158040000.0
b1 !
#158092000.0
b0 !
#158144000.0
b1 !
#158196000.0
b0 !
#158248000.0
b1 !
#158300000.0
b0 !
#158352000.0
b1 !
#158404000.0
b0 !
#158456000.0
b1 !
#158768000.0
b0 !
#158820000.0
b1 !
#158924000.0
b0 !
#159320000.0
b1 !
#159788000.0
b0 !
#159844000.0
b1 !
#160312000.0
b0 !
#160364000.0
b1 !
#160832000.0
b0 !
#160884000.0
b1 !
#161352000.0
b0 !
#161408000.0
b1 !
#161876000.0
b0 !
#161928000.0
b1 !
#162396000.0
b0 !
#162452000.0
b1 !
#162500000.0
b0 !
#179252000.0
b1 !
#180008000.0
b0 !
#180196000.0
b1 !
#180248000.0
b0 !
#180300000.0
b1 !
#180352000.0
b0 !
#180404000.0
b1 !
#180456000.0
b0 !
#180508000.0
b1 !
#180560000.0
b0 !
#180612000.0
b1 !
#180664000.0
b0 !
#180716000.0
b1 !
#180768000.0
b0 !
#180820000.0
b1 !
#181028000.0
b0 !
#181132000.0
b1 !
#181184000.0
b0 !
#181572000.0
b1 !
#182040000.0
b0 !
#182092000.0
b1 !
#182560000.0
b0 !
#182612000.0
b1 !
#183080000.0
b0 !
#183136000.0
b1 !
#183604000.0
b0 !
#183656000.0
b1 !
#184124000.0
b0 !
#184176000.0
b1 !
#184644000.0
b0 !
#184696000.0
b1 !
#184748000.0
b0 !
#200528000.0
b1 !
#201288000.0
b0 !
#201448000.0
b1 !
#201496000.0
b0 !
#201552000.0
b1 !
#201600000.0
b0 !
#201656000.0
b1 !
#201708000.0
b0 !
#201760000.0
b1 !
#201812000.0
b0 !
#201864000.0
b1 !
#201916000.0
b0 !
#201968000.0
b1 !
#202072000.0
b0 !
#202124000.0
b1 !
#202280000.0
b0 !
#202816000.0
b1 !
#203284000.0
b0 !
#203336000.0
b1 !
#203804000.0
b0 !
#203860000.0
b1 !
